…
The code above creates dummy, or indicator, variables for the categorical variables housing and major. For housing, which has two levels, one dummy variable is needed, as the levels of it will explain the levels of housing. The dummy variable *dhous* is set to 1 when housing is "on campus" and 0 when housing is "off campus." This makes "off campus" the reference group.

The variable major has three levels, so we need two dummy variables. The dummy variable *dSTEM* is set to 1 when major is "STEM" and 0 otherwise. The dummy variable *dbusiness* is set to 1 when major is "business" and 0 otherwise. This makes "other" the reference group, when *dSTEM* and *dbusiness* are both 0.

#### 3. Write a function to implement a best subsets approach to model selection (allowing for any number of explanatory variables, which would include all dummy variables and none of the original categorical variables, because they are replaced by the dummy variables), using a linear model, where r-square is the criterion you will use to pick the best model. You may assume that the data will always have columns in the order Y, X1, X2, ..., Xp (where Y is the response variable), and that the data are always “clean”. The only input to the function should be the data set.

The function *modelSelect* takes a dataset with the first variable being the response. It first initializes an empty tibble to be filled as it loops over and creates a model for each combination of explanatory variables. Within this table, the highest value of R<sup>2</sup> for each number of explanatory variables is flagged. The output tibble is created from a subset of the tibble inside the function, followed by a plot produced by ggplot. These are then both printed from the function.

#### 4. Choose the best model for the data set called finalprojectdata.csv, based on R<sup>2</sup> by applying your function in the previous part. In other words, you want to balance having higher values of R<sup>2</sup>, against having an unnecessarily complicated model. Put another way, don’t pick a model that is more complicated (more explanatory variables in the model) if there is not “significant” gain in R<sup>2</sup>, relative to simpler models. You can decide what a “significant” gain is, but you should clearly explain what that is and how you used it. Be sure to write the equation of your final model using the variable names.

    ## # A tibble: 127 x 3
    ##    ModelNumber ExplanatoryVariables   Rsquared
    ##          <dbl> <chr>                     <dbl>
    ##  1           1 sship                0.413     
    ##  2           2 parents              0.141     
    ##  3           3 car                  0.00000746
    ##  4           4 distSQRT             0.246     
    ##  5           5 dhous                0.00977   
    ##  6           6 dSTEM                0.0102    
    ##  7           7 dbusiness            0.0106    
    ##  8           8 sship parents        0.566     
    ##  9           9 sship car            0.414     
    ## 10          10 sship distSQRT       0.618     
    ## # … with 117 more rows
…
